// Jest Snapshot v1, https://goo.gl/fbAQLP

exports[`<GeneralInfo /> should match snapshot 1`] = `
<div
  className="ant-card ant-card-bordered"
>
  <div
    className="ant-card-body"
    style={
      Object {
        "margin": 0,
        "padding": "16px 32px",
      }
    }
  >
    <div
      className="ant-row-flex"
    >
      <div
        className="ant-col-6"
      >
        <label
          className="data-label"
        >
          <span>
            Stamp ID
          </span>
        </label>
        -
      </div>
      <div
        className="ant-col-6"
      >
        <label
          className="data-label"
        >
          <span>
            Current Job
          </span>
        </label>
        <a
          onClick={[Function]}
        >
          -
        </a>
      </div>
      <div
        className="ant-col-6"
      >
        <label
          className="data-label"
        >
          <span>
            Current Hub
          </span>
        </label>
        -
      </div>
      <div
        className="ant-col-6"
      >
        <label
          className="data-label"
        >
          <span>
            Destination Hub
          </span>
        </label>
        -
      </div>
      <div
        className="ant-col-6"
      >
        <label
          className="data-label"
        >
          <span>
            Order Tracking ID
          </span>
        </label>
        <a
          onClick={[Function]}
        >
          -
        </a>
      </div>
      <div
        className="ant-col-6"
      >
        <label
          className="data-label"
        >
          <span>
            Latest Event
          </span>
        </label>
        -
      </div>
      <div
        className="ant-col-6"
      >
        <label
          className="data-label"
        >
          <span>
            Zone
          </span>
        </label>
        -
      </div>
    </div>
  </div>
</div>
`;
