// Jest Snapshot v1, https://goo.gl/fbAQLP

exports[`FilterAutocompleteBox matches snapshot 1`] = `
<div
  className="ant-card ant-card-bordered"
>
  <div
    className="ant-card-body"
    style={Object {}}
  >
    <div
      className="ant-row-flex"
    >
      <div
        className="ant-col-4"
      >
        Shipper
      </div>
      <div
        className="ant-col-13"
      >
        <div
          className="ant-select ant-select-enabled"
          onBlur={[Function]}
          onClick={[Function]}
          onFocus={[Function]}
          onMouseDown={[Function]}
          onMouseOut={[Function]}
          onMouseUp={[Function]}
          onTouchStart={[Function]}
        >
          <div
            aria-autocomplete="list"
            aria-expanded={false}
            aria-haspopup="true"
            className="ant-select-selection
            ant-select-selection--single"
            onKeyDown={[Function]}
            role="combobox"
            tabIndex={0}
          >
            <div
              className="ant-select-selection__rendered"
            >
              <div
                className="ant-select-selection__placeholder"
                onClick={[Function]}
                onMouseDown={[Function]}
                style={
                  Object {
                    "WebkitUserSelect": "none",
                    "display": "block",
                    "userSelect": "none",
                  }
                }
                unselectable="on"
              >
                <span>
                  TRANSLATED_LABEL
                </span>
              </div>
              <div
                className="ant-select-search ant-select-search--inline"
                style={
                  Object {
                    "display": "none",
                  }
                }
              >
                <div
                  className="ant-select-search__field__wrap"
                >
                  <input
                    autoComplete="off"
                    className="ant-select-search__field"
                    onChange={[Function]}
                    onKeyDown={[Function]}
                    value=""
                  />
                  <span
                    className="ant-select-search__field__mirror"
                  >
                    
                     
                  </span>
                </div>
              </div>
            </div>
            <span
              className="ant-select-arrow"
              onClick={[Function]}
              style={
                Object {
                  "WebkitUserSelect": "none",
                  "userSelect": "none",
                }
              }
              unselectable="on"
            >
              <i
                className="anticon anticon-down ant-select-arrow-icon"
              >
                <svg
                  aria-hidden="true"
                  className=""
                  data-icon="down"
                  fill="currentColor"
                  height="1em"
                  viewBox="64 64 896 896"
                  width="1em"
                >
                  <path
                    d="M884 256h-75c-5.1 0-9.9 2.5-12.9 6.6L512 654.2 227.9 262.6c-3-4.1-7.8-6.6-12.9-6.6h-75c-6.5 0-10.3 7.4-6.5 12.7l352.6 486.1c12.8 17.6 39 17.6 51.7 0l352.6-486.1c3.9-5.3.1-12.7-6.4-12.7z"
                  />
                </svg>
              </i>
            </span>
          </div>
        </div>
      </div>
      <div
        className="ant-col-7"
      >
        <div
          className="ant-btn-group"
        >
          <button
            className="ant-btn"
            onClick={[Function]}
            type="button"
          >
            <span>
              TRANSLATED_LABEL (
            </span>
            0
            <span>
              )
            </span>
          </button>
          <button
            className="ant-btn"
            onClick={[Function]}
            type="button"
          >
            <i
              className="anticon anticon-dash"
            >
              <svg
                aria-hidden="true"
                className=""
                data-icon="dash"
                fill="currentColor"
                height="1em"
                viewBox="64 64 896 896"
                width="1em"
              >
                <path
                  d="M112 476h160v72H112zm320 0h160v72H432zm320 0h160v72H752z"
                />
              </svg>
            </i>
          </button>
          <button
            className="ant-btn ant-btn-danger"
            onClick={[Function]}
            type="button"
          >
            <i
              className="anticon anticon-close"
            >
              <svg
                aria-hidden="true"
                className=""
                data-icon="close"
                fill="currentColor"
                height="1em"
                viewBox="64 64 896 896"
                width="1em"
              >
                <path
                  d="M563.8 512l262.5-312.9c4.4-5.2.7-13.1-6.1-13.1h-79.8c-4.7 0-9.2 2.1-12.3 5.7L511.6 449.8 295.1 191.7c-3-3.6-7.5-5.7-12.3-5.7H203c-6.8 0-10.5 7.9-6.1 13.1L459.4 512 196.9 824.9A7.95 7.95 0 0 0 203 838h79.8c4.7 0 9.2-2.1 12.3-5.7l216.5-258.1 216.5 258.1c3 3.6 7.5 5.7 12.3 5.7h79.8c6.8 0 10.5-7.9 6.1-13.1L563.8 512z"
                />
              </svg>
            </i>
          </button>
        </div>
      </div>
    </div>
    <div
      className="ant-row"
    />
  </div>
</div>
`;
