// Jest Snapshot v1, https://goo.gl/fbAQLP

exports[`FilterRangeBox matches snapshot 1`] = `
<div
  className="ant-card ant-card-bordered"
>
  <div
    className="ant-card-body"
    style={Object {}}
  >
    <div
      className="ant-row-flex"
    >
      <div
        className="ant-col-4"
      >
        Number of Parcels
      </div>
      <div
        className="ant-col-1"
      />
      <div
        className="ant-col-16"
      >
        <div
          className="ant-slider ant-slider-with-marks"
          onBlur={[Function]}
          onFocus={[Function]}
          onKeyDown={[Function]}
          onMouseDown={[Function]}
          onMouseUp={[Function]}
          onTouchStart={[Function]}
        >
          <div
            className="ant-slider-rail"
            style={Object {}}
          />
          <div
            className="ant-slider-track ant-slider-track-1"
            style={
              Object {
                "left": "0%",
                "width": "100%",
              }
            }
          />
          <div
            className="ant-slider-step"
          >
            <span
              className="ant-slider-dot ant-slider-dot-active"
              style={
                Object {
                  "left": "0%",
                }
              }
            />
            <span
              className="ant-slider-dot ant-slider-dot-active"
              style={
                Object {
                  "left": "100%",
                }
              }
            />
          </div>
          <div
            aria-disabled={false}
            aria-valuemax={10}
            aria-valuemin={1}
            aria-valuenow={1}
            className="ant-slider-handle ant-slider-handle-1"
            onBlur={[Function]}
            onKeyDown={[Function]}
            onMouseEnter={[Function]}
            onMouseLeave={[Function]}
            role="slider"
            style={
              Object {
                "left": "0%",
              }
            }
            tabIndex={0}
          />
          <div
            aria-disabled={false}
            aria-valuemax={10}
            aria-valuemin={1}
            aria-valuenow={10}
            className="ant-slider-handle ant-slider-handle-2"
            onBlur={[Function]}
            onKeyDown={[Function]}
            onMouseEnter={[Function]}
            onMouseLeave={[Function]}
            role="slider"
            style={
              Object {
                "left": "100%",
              }
            }
            tabIndex={0}
          />
          <div
            className="ant-slider-mark"
          >
            <span
              className="ant-slider-mark-text ant-slider-mark-text-active"
              onMouseDown={[Function]}
              onTouchStart={[Function]}
              style={
                Object {
                  "left": "0%",
                  "marginLeft": "-45%",
                  "width": "90%",
                }
              }
            >
              <strong>
                1
                 
                Parcels
              </strong>
            </span>
            <span
              className="ant-slider-mark-text ant-slider-mark-text-active"
              onMouseDown={[Function]}
              onTouchStart={[Function]}
              style={
                Object {
                  "left": "100%",
                  "marginLeft": "-45%",
                  "width": "90%",
                }
              }
            >
              <strong>
                10
                 
                Parcels
              </strong>
            </span>
          </div>
        </div>
      </div>
      <div
        className="ant-col-3"
      >
        <div
          className="ant-btn-group"
        >
          <button
            className="ant-btn ant-btn-danger"
            onClick={[Function]}
            type="button"
          >
            <i
              className="anticon anticon-close"
            >
              <svg
                aria-hidden="true"
                className=""
                data-icon="close"
                fill="currentColor"
                height="1em"
                viewBox="64 64 896 896"
                width="1em"
              >
                <path
                  d="M563.8 512l262.5-312.9c4.4-5.2.7-13.1-6.1-13.1h-79.8c-4.7 0-9.2 2.1-12.3 5.7L511.6 449.8 295.1 191.7c-3-3.6-7.5-5.7-12.3-5.7H203c-6.8 0-10.5 7.9-6.1 13.1L459.4 512 196.9 824.9A7.95 7.95 0 0 0 203 838h79.8c4.7 0 9.2-2.1 12.3-5.7l216.5-258.1 216.5 258.1c3 3.6 7.5 5.7 12.3 5.7h79.8c6.8 0 10.5-7.9 6.1-13.1L563.8 512z"
                />
              </svg>
            </i>
          </button>
        </div>
      </div>
    </div>
  </div>
</div>
`;
