// Jest Snapshot v1, https://goo.gl/fbAQLP

exports[`CopiableText matches snapshot 1`] = `
.c0 {
  padding-left: 5px;
  padding-bottom: 4px;
}

<div
  onClick={[Function]}
  onMouseEnter={[Function]}
  onMouseLeave={[Function]}
  style={
    Object {
      "position": "relative",
    }
  }
>
  <div
    className="ant-row-flex ant-row-flex-middle c0"
    onClick={[Function]}
  >
    <div
      className="ant-col-18"
    >
      test
    </div>
  </div>
</div>
`;
