// Jest Snapshot v1, https://goo.gl/fbAQLP

exports[`EditParcelDetailsModal renders a EditParcelDetailsModal component 1`] = `
<Connect(Form(SubmittableModal))
  disabled={false}
  onSubmit={[Function]}
  title="commons.model.edit-parcel-details"
  visible={true}
>
  <EditParcelDetailsContent
    parcelFormData={
      Object {
        "deliveryType": "Same day",
        "stampTrackingId": "KDKSLSL82892929",
      }
    }
    parcelInformation={
      Object {
        "createdOn": "2018-12-12 13:42:23+08:00",
        "id": 123,
        "orderId": 456,
        "orderSource": "API",
        "parcelTrackingId": "NDKS92883JKLS",
      }
    }
  />
</Connect(Form(SubmittableModal))>
`;
