// Jest Snapshot v1, https://goo.gl/fbAQLP

exports[`AddToRouteForm renders a AddToRouteForm component 1`] = `
<Form
  hideRequiredMark={false}
  layout="vertical"
  onSubmit={[Function]}
  prefixCls="ant-form"
>
  <Row
    gutter={0}
    style={
      Object {
        "marginTop": 4,
      }
    }
  >
    <Col>
      <T
        id="container.parcel-edit.add-to-route-desc"
      />
    </Col>
  </Row>
  <Row
    gutter={0}
    style={
      Object {
        "marginTop": 16,
      }
    }
  >
    <FormControl
      fieldName="commons.model.route-id"
      menu={Array []}
      options={
        Object {
          "initialValue": null,
          "rules": Array [
            Object {
              "message": <T
                id="container.parcel-edit.validation.required-route-id"
              />,
              "required": true,
            },
          ],
        }
      }
      postfix={null}
      span={12}
      stateKey="routeId"
      type="text"
    />
    <FormControl
      fieldName="commons.model.type"
      menu={Array []}
      options={
        Object {
          "initialValue": undefined,
          "rules": Array [
            Object {
              "message": <T
                id="container.parcel-edit.validation.required-job-type"
              />,
              "required": true,
            },
          ],
        }
      }
      postfix={null}
      span={12}
      stateKey="type"
      type="dropdown"
    />
  </Row>
  <Row
    gutter={0}
    style={
      Object {
        "marginTop": 20,
      }
    }
  >
    <Col
      span={24}
    >
      <Card
        title={
          <T
            id="container.parcel-edit.route-finder"
          />
        }
      >
        <Row
          align="bottom"
          gutter={0}
          style={
            Object {
              "marginTop": 4,
            }
          }
          type="flex"
        >
          <Col
            style={
              Object {
                "flex": "1 1",
              }
            }
          >
            <FormItem
              className="form-control"
              colon={true}
              hasFeedback={false}
              label="Route Tags"
              prefixCls="ant-form"
            />
          </Col>
          <Col>
            <Button
              block={false}
              ghost={false}
              loading={false}
              onClick={[Function]}
              prefixCls="ant-btn"
              style={
                Object {
                  "marginBottom": "18px",
                }
              }
              type="primary"
            >
              <T
                id="container.parcel-edit.suggest-route"
              />
            </Button>
          </Col>
        </Row>
      </Card>
    </Col>
  </Row>
</Form>
`;
