// Jest Snapshot v1, https://goo.gl/fbAQLP

exports[`FilterSingleTextBox matches snapshot 1`] = `
<div
  className="ant-card ant-card-bordered"
>
  <div
    className="ant-card-body"
    style={Object {}}
  >
    <div
      className="ant-row-flex"
    >
      <div
        className="ant-col-4"
      >
        Aged Days
      </div>
      <div
        className="ant-col-17"
      >
        <input
          className="ant-input"
          disabled={false}
          onChange={[Function]}
          onKeyDown={[Function]}
          placeholder="TRANSLATED_LABEL"
          type="text"
        />
      </div>
      <div
        className="ant-col-3"
      >
        <div
          className="ant-btn-group"
        >
          <button
            className="ant-btn ant-btn-danger"
            onClick={[Function]}
            type="button"
          >
            <i
              className="anticon anticon-close"
            >
              <svg
                aria-hidden="true"
                className=""
                data-icon="close"
                fill="currentColor"
                height="1em"
                viewBox="64 64 896 896"
                width="1em"
              >
                <path
                  d="M563.8 512l262.5-312.9c4.4-5.2.7-13.1-6.1-13.1h-79.8c-4.7 0-9.2 2.1-12.3 5.7L511.6 449.8 295.1 191.7c-3-3.6-7.5-5.7-12.3-5.7H203c-6.8 0-10.5 7.9-6.1 13.1L459.4 512 196.9 824.9A7.95 7.95 0 0 0 203 838h79.8c4.7 0 9.2-2.1 12.3-5.7l216.5-258.1 216.5 258.1c3 3.6 7.5 5.7 12.3 5.7h79.8c6.8 0 10.5-7.9 6.1-13.1L563.8 512z"
                />
              </svg>
            </i>
          </button>
        </div>
      </div>
    </div>
  </div>
</div>
`;
